{
	"info": {
		"_postman_id": "9a2f24d6-38c7-42d3-8e48-eda259672ca3",
		"name": "hn-postman",
		"schema": "https://schema.getpostman.com/json/collection/v2.1.0/collection.json"
	},
	"item": [
		{
			"name": "Get /",
			"request": {
				"method": "GET",
				"header": [],
				"url": {
					"raw": "http://localhost:3000/",
					"protocol": "http",
					"host": [
						"localhost"
					],
					"port": "3000",
					"path": [
						""
					]
				}
			},
			"response": []
		},
		{
			"name": "Get all news",
			"protocolProfileBehavior": {
				"disableBodyPruning": true
			},
			"request": {
				"method": "GET",
				"header": [],
				"body": {
					"mode": "urlencoded",
					"urlencoded": [
						{
							"key": "page",
							"value": "2",
							"type": "text"
						}
					]
				},
				"url": {
					"raw": "http://localhost:3000/api/news",
					"protocol": "http",
					"host": [
						"localhost"
					],
					"port": "3000",
					"path": [
						"api",
						"news"
					]
				}
			},
			"response": []
		},
		{
			"name": "Get news with Tags",
			"request": {
				"method": "GET",
				"header": [],
				"url": {
					"raw": "http://localhost:3000/api/news?tags=comment",
					"protocol": "http",
					"host": [
						"localhost"
					],
					"port": "3000",
					"path": [
						"api",
						"news"
					],
					"query": [
						{
							"key": "tags",
							"value": "comment"
						}
					]
				}
			},
			"response": []
		},
		{
			"name": "Get news by author",
			"request": {
				"method": "GET",
				"header": [],
				"url": {
					"raw": "http://localhost:3000/api/news?author=throwaway894345",
					"protocol": "http",
					"host": [
						"localhost"
					],
					"port": "3000",
					"path": [
						"api",
						"news"
					],
					"query": [
						{
							"key": "author",
							"value": "throwaway894345"
						}
					]
				}
			},
			"response": []
		},
		{
			"name": "Get news by title",
			"request": {
				"method": "GET",
				"header": [],
				"url": {
					"raw": "http://localhost:3000/api/news?title=Go",
					"protocol": "http",
					"host": [
						"localhost"
					],
					"port": "3000",
					"path": [
						"api",
						"news"
					],
					"query": [
						{
							"key": "title",
							"value": "Go"
						}
					]
				}
			},
			"response": []
		},
		{
			"name": "Delete news by ID",
			"request": {
				"method": "DELETE",
				"header": [],
				"url": {
					"raw": "http://localhost:3000/api/news/61fff30bc17607f336d1e4a3",
					"protocol": "http",
					"host": [
						"localhost"
					],
					"port": "3000",
					"path": [
						"api",
						"news",
						"61fff30bc17607f336d1e4a3"
					]
				}
			},
			"response": []
		}
	]
}